<?xml version="1.0" encoding="UTF-8" standalone="no"?>
<!-- Generator: Adobe Illustrator 23.0.0, SVG Export Plug-In . SVG Version: 6.00 Build 0)  -->

<svg
   xmlns:dc="http://purl.org/dc/elements/1.1/"
   xmlns:cc="http://creativecommons.org/ns#"
   xmlns:rdf="http://www.w3.org/1999/02/22-rdf-syntax-ns#"
   xmlns:svg="http://www.w3.org/2000/svg"
   xmlns="http://www.w3.org/2000/svg"
   xmlns:sodipodi="http://sodipodi.sourceforge.net/DTD/sodipodi-0.dtd"
   xmlns:inkscape="http://www.inkscape.org/namespaces/inkscape"
   version="1.1"
   id="Capa_1"
   x="0px"
   y="0px"
   viewBox="0 0 114.69999 52.990001"
   xml:space="preserve"
   sodipodi:docname="logo_pacifica.svg"
   width="114.7"
   height="52.990002"
   inkscape:version="0.92.4 (5da689c313, 2019-01-14)"><metadata
   id="metadata911"><rdf:RDF><cc:Work
       rdf:about=""><dc:format>image/svg+xml</dc:format><dc:type
         rdf:resource="http://purl.org/dc/dcmitype/StillImage" /><dc:title></dc:title></cc:Work></rdf:RDF></metadata><defs
   id="defs909" /><sodipodi:namedview
   pagecolor="#ffffff"
   bordercolor="#666666"
   borderopacity="1"
   objecttolerance="10"
   gridtolerance="10"
   guidetolerance="10"
   inkscape:pageopacity="0"
   inkscape:pageshadow="2"
   inkscape:window-width="1829"
   inkscape:window-height="1051"
   id="namedview907"
   showgrid="false"
   fit-margin-top="0"
   fit-margin-left="0"
   fit-margin-right="0"
   fit-margin-bottom="0"
   inkscape:zoom="1.0191355"
   inkscape:cx="410.75133"
   inkscape:cy="-39.2792"
   inkscape:window-x="-9"
   inkscape:window-y="-9"
   inkscape:window-maximized="1"
   inkscape:current-layer="Capa_1" />
<style
   type="text/css"
   id="style864">
	.st0{fill-rule:evenodd;clip-rule:evenodd;fill:white;}
</style>
<path
   class="st0"
   d="m 17.03,44.66 -3.72,3.61 3.72,3.71 3.62,-3.71 z"
   id="path866"
   inkscape:connector-curvature="0"
   style="clip-rule:evenodd;fill:#ffffff;fill-rule:evenodd" />
<path
   class="st0"
   d="m 97.31,44.66 -3.71,3.61 3.72,3.71 3.62,-3.71 z"
   id="path868"
   inkscape:connector-curvature="0"
   style="clip-rule:evenodd;fill:#ffffff;fill-rule:evenodd" />
<path
   class="st0"
   d="M 0,40.48 H 46.61 V 38.35 H 0 Z"
   id="path870"
   inkscape:connector-curvature="0"
   style="clip-rule:evenodd;fill:#ffffff;fill-rule:evenodd" />
<path
   class="st0"
   d="m 63.4,40.44 h 51.3 V 38.31 H 63.4 Z"
   id="path872"
   inkscape:connector-curvature="0"
   style="clip-rule:evenodd;fill:#ffffff;fill-rule:evenodd" />
<path
   class="st0"
   d="m 85.76,52.21 c -0.2,0.1 -0.39,0.15 -0.54,0.25 -0.15,0 -0.3,0.05 -0.45,0.05 -0.39,0 -0.7,-0.15 -0.89,-0.4 -0.15,-0.25 -0.25,-0.69 -0.25,-1.34 0,-0.44 0,-1.03 0.05,-1.77 v -1.43 -0.35 c 0,-0.1 0,-0.25 0.05,-0.35 0.05,0 0.1,0 0.15,-0.04 h 0.35 c 0.15,0 0.34,0 0.54,0.04 h 0.69 v -0.09 c 0,-0.11 0,-0.15 0.05,-0.24 v -0.2 c -0.35,0 -0.64,0.05 -0.94,0.05 -0.3,0 -0.59,0.05 -0.84,0.05 V 45.5 45.11 c 0,-0.15 0,-0.4 0.05,-0.69 -0.15,0.05 -0.35,0.15 -0.54,0.19 -0.15,0.06 -0.35,0.1 -0.6,0.16 0,0.29 0.05,0.49 0.05,0.69 v 0.45 0.49 c -0.15,0 -0.29,-0.05 -0.45,-0.05 H 81.8 v 0.1 0.1 0.14 0.26 c 0.1,-0.06 0.24,-0.06 0.35,-0.06 h 0.35 0.15 v 0.43 2.32 c -0.05,0.84 -0.05,1.34 -0.05,1.43 0,0.69 0.15,1.19 0.4,1.48 0.29,0.29 0.74,0.44 1.33,0.44 0.3,0 0.55,-0.05 0.8,-0.15 0.25,-0.05 0.5,-0.19 0.74,-0.34 z"
   id="path874"
   inkscape:connector-curvature="0"
   style="clip-rule:evenodd;fill:#ffffff;fill-rule:evenodd" />
<path
   class="st0"
   d="m 34.75,48.16 c 0.89,-0.15 1.58,-0.45 2.03,-0.89 0.5,-0.44 0.74,-0.99 0.74,-1.67 0,-0.74 -0.25,-1.29 -0.8,-1.68 -0.5,-0.35 -1.24,-0.55 -2.18,-0.55 H 34.4 c -0.35,0 -0.74,0 -1.24,0.06 h -0.99 -0.5 -0.15 c 0.05,0.49 0.05,1.13 0.05,1.83 0.05,0.74 0.05,1.68 0.05,2.86 0,1.44 0,2.47 -0.05,3.06 0,0.65 0,1.19 -0.05,1.68 0.15,-0.05 0.25,-0.05 0.35,-0.05 h 0.3 0.35 c 0.09,0 0.19,0 0.29,0.05 0,-0.39 0,-0.74 -0.05,-1.09 V 50.78 48.21 H 32.81 33 c 0.16,0 0.26,0 0.3,0.04 0.1,0.06 0.19,0.15 0.25,0.25 l 0.99,1.24 0.55,0.69 c 0.24,0.35 0.5,0.7 0.79,1.04 0.25,0.39 0.6,0.84 0.94,1.38 0.15,0 0.3,-0.05 0.4,-0.05 H 37.61 38 c 0.15,0 0.3,0 0.45,0.05 l -0.2,-0.25 c -1.67,-2.07 -2.86,-3.55 -3.5,-4.44 M 33.21,47.82 H 32.96 32.77 V 45.99 45.35 44.6 c 0.05,-0.24 0.05,-0.44 0.05,-0.63 h 0.25 c 0.44,-0.05 0.7,-0.05 0.84,-0.05 h 0.64 c 0.5,0.1 0.89,0.24 1.14,0.44 0.44,0.34 0.63,0.79 0.63,1.44 0,0.69 -0.29,1.18 -0.79,1.53 -0.25,0.15 -0.59,0.29 -0.99,0.39 -0.38,0.05 -0.83,0.1 -1.33,0.1"
   id="path876"
   inkscape:connector-curvature="0"
   style="clip-rule:evenodd;fill:#ffffff;fill-rule:evenodd" />
<path
   class="st0"
   d="m 46.04,46.18 h -0.15 c -0.89,0.05 -1.63,0.35 -2.18,0.94 -0.6,0.65 -0.9,1.44 -0.9,2.47 0,0.99 0.3,1.83 0.95,2.42 0.54,0.59 1.24,0.89 2.13,0.94 h 0.2 c 0.44,0 0.84,-0.05 1.24,-0.19 0.4,-0.1 0.79,-0.3 1.14,-0.55 v -0.19 -0.2 -0.29 c -0.29,0.29 -0.64,0.54 -0.99,0.69 -0.35,0.15 -0.7,0.2 -1.15,0.2 h -0.44 c -0.55,-0.1 -0.94,-0.35 -1.28,-0.75 -0.4,-0.49 -0.6,-1.18 -0.6,-2.12 V 49.5 h 1.89 2.92 V 49.35 49.2 c 0,-0.99 -0.24,-1.68 -0.74,-2.22 -0.5,-0.55 -1.14,-0.8 -2.04,-0.8 M 47.73,49 H 45.9 44.07 c 0,-0.69 0.2,-1.29 0.55,-1.73 0.34,-0.39 0.79,-0.64 1.28,-0.64 H 46 c 0.5,0 0.94,0.15 1.24,0.54 0.3,0.4 0.49,0.94 0.49,1.63 z"
   id="path878"
   inkscape:connector-curvature="0"
   style="clip-rule:evenodd;fill:#ffffff;fill-rule:evenodd" />
<path
   class="st0"
   d="m 77.09,46.24 c -0.29,0 -0.59,0.15 -0.89,0.39 -0.3,0.3 -0.55,0.69 -0.84,1.23 0,-0.29 0.05,-0.59 0.05,-0.84 0,-0.25 0.05,-0.49 0.05,-0.69 -0.1,0 -0.2,0 -0.25,0.05 h -0.35 -0.3 c -0.1,-0.05 -0.2,-0.05 -0.3,-0.05 0.05,0.2 0.05,0.44 0.05,0.69 v 1.29 2.77 c 0,0.74 0,1.34 -0.05,1.78 0.1,-0.05 0.2,-0.05 0.3,-0.05 h 0.25 0.3 c 0.1,0 0.2,0.05 0.3,0.05 -0.05,-0.34 -0.05,-0.74 -0.05,-1.24 v -1.58 c 0,-0.94 0.1,-1.68 0.34,-2.12 0.21,-0.45 0.6,-0.65 1.1,-0.65 0.1,0 0.25,0 0.34,0.06 0.1,0 0.2,0.04 0.35,0.1 l 0.09,-0.05 v -0.59 c 0,-0.2 0.05,-0.34 0.05,-0.44 -0.15,-0.06 -0.25,-0.06 -0.3,-0.06 -0.09,-0.05 -0.13,-0.05 -0.24,-0.05"
   id="path880"
   inkscape:connector-curvature="0"
   style="clip-rule:evenodd;fill:#ffffff;fill-rule:evenodd" />
<path
   class="st0"
   d="m 56.39,49.2 -0.94,-0.25 c -0.39,-0.15 -0.64,-0.25 -0.79,-0.44 -0.2,-0.2 -0.25,-0.44 -0.25,-0.74 0,-0.35 0.1,-0.59 0.29,-0.84 0.25,-0.2 0.5,-0.3 0.89,-0.3 0.25,0 0.55,0.04 0.79,0.2 0.25,0.15 0.55,0.39 0.79,0.69 0.05,-0.15 0.05,-0.29 0.1,-0.44 0.05,-0.15 0.15,-0.3 0.2,-0.45 -0.25,-0.15 -0.5,-0.25 -0.79,-0.29 -0.3,-0.1 -0.6,-0.15 -0.95,-0.15 -0.65,0 -1.14,0.2 -1.54,0.54 -0.4,0.35 -0.59,0.79 -0.59,1.38 0,0.49 0.1,0.84 0.35,1.14 0.25,0.3 0.64,0.5 1.14,0.64 l 0.65,0.2 c 0.4,0.09 0.69,0.25 0.84,0.4 0.2,0.2 0.24,0.44 0.24,0.74 0,0.39 -0.1,0.69 -0.34,0.89 -0.26,0.25 -0.55,0.35 -0.99,0.35 -0.35,0 -0.65,-0.1 -0.94,-0.25 -0.24,-0.19 -0.49,-0.45 -0.74,-0.79 -0.05,0.15 -0.1,0.34 -0.14,0.54 -0.05,0.15 -0.1,0.35 -0.2,0.49 0.25,0.2 0.5,0.3 0.79,0.39 0.35,0.1 0.65,0.1 1,0.1 0.74,0 1.34,-0.19 1.78,-0.59 0.45,-0.39 0.7,-0.94 0.7,-1.53 0,-0.44 -0.1,-0.79 -0.3,-1.04 -0.26,-0.25 -0.55,-0.44 -1.05,-0.59"
   id="path882"
   inkscape:connector-curvature="0"
   style="clip-rule:evenodd;fill:#ffffff;fill-rule:evenodd" />
<path
   class="st0"
   d="m 65.66,46.18 c -0.95,0 -1.74,0.35 -2.33,0.99 -0.65,0.59 -0.94,1.43 -0.94,2.42 0,0.99 0.3,1.83 0.94,2.42 0.59,0.64 1.38,0.94 2.33,0.94 0.99,0 1.78,-0.29 2.37,-0.94 0.64,-0.59 0.94,-1.43 0.94,-2.42 0,-0.99 -0.3,-1.83 -0.94,-2.47 -0.59,-0.59 -1.38,-0.94 -2.37,-0.94 m 1.57,5.64 c -0.34,0.49 -0.89,0.74 -1.57,0.74 -0.7,0 -1.19,-0.25 -1.54,-0.74 -0.4,-0.54 -0.54,-1.29 -0.54,-2.22 0,-0.99 0.14,-1.73 0.54,-2.23 0.35,-0.49 0.84,-0.74 1.54,-0.74 0.69,0 1.24,0.24 1.57,0.74 0.36,0.55 0.55,1.28 0.55,2.32 0,0.94 -0.19,1.63 -0.55,2.13"
   id="path884"
   inkscape:connector-curvature="0"
   style="clip-rule:evenodd;fill:#ffffff;fill-rule:evenodd" />
<path
   class="st0"
   d="m 33.42,28.2 c -0.5,0.29 -0.9,0.45 -1.09,0.45 -0.35,0 -0.55,-0.24 -0.55,-0.69 0,-0.45 0.16,-1.38 0.45,-2.92 0.6,-2.77 1.19,-5.24 1.83,-7.36 l 1.58,-5.38 -1.38,0.29 -0.5,0.84 c -0.49,-0.05 -0.93,-0.1 -1.38,-0.1 -1.83,0 -3.26,0.3 -4.46,0.79 -0.3,0.15 -0.59,0.34 -0.89,0.49 -1.14,0.7 -2.27,1.64 -3.32,2.82 -1.38,1.53 -2.43,3.21 -3.27,5.04 -0.79,1.83 -1.18,3.51 -1.18,4.99 0,1.23 0.29,2.27 0.89,3.06 0.44,0.59 1.09,0.84 1.88,0.84 0.89,0 1.84,-0.3 2.88,-0.94 0.74,-0.49 1.48,-0.99 2.13,-1.58 0.84,-0.64 1.54,-1.38 2.23,-2.17 l -0.84,2.87 c -0.1,0.35 -0.2,0.64 -0.2,0.89 0,0.3 0.1,0.55 0.29,0.75 0.2,0.15 0.45,0.25 0.85,0.25 0.5,0 1.04,-0.1 1.53,-0.3 0.84,-0.29 1.69,-0.79 2.62,-1.38 0.45,-0.3 1.48,-1.18 3.08,-2.67 l -0.65,-0.84 c -0.85,0.77 -1.68,1.42 -2.53,1.96 m -3.56,-5.73 c -0.55,1.98 -1.35,3.45 -2.48,4.54 -0.1,0.1 -0.2,0.2 -0.35,0.3 -0.99,0.84 -1.93,1.28 -2.77,1.28 -0.55,0 -0.99,-0.25 -1.29,-0.64 -0.35,-0.45 -0.5,-1.14 -0.5,-2.08 0,-1.83 0.39,-3.66 1.24,-5.43 0.79,-1.83 1.69,-3.11 2.63,-3.81 0.25,-0.15 0.45,-0.29 0.69,-0.44 0.8,-0.4 1.68,-0.59 2.67,-0.59 0.5,0 1.14,0.09 1.93,0.24 z"
   id="path886"
   inkscape:connector-curvature="0"
   style="clip-rule:evenodd;fill:#ffffff;fill-rule:evenodd" />
<path
   class="st0"
   d="m 80.71,4.68 c -0.29,0.4 -0.44,0.89 -0.44,1.44 0,0.49 0.15,0.89 0.4,1.19 0.05,0 0.05,0 0.05,0.05 0.3,0.25 0.65,0.39 1.04,0.39 0.54,0 1.04,-0.25 1.43,-0.74 0.45,-0.44 0.65,-0.99 0.65,-1.63 0,-0.45 -0.1,-0.84 -0.39,-1.09 C 83.15,4 82.8,3.84 82.36,3.84 c -0.55,0 -1.04,0.2 -1.49,0.65 -0.06,0.1 -0.11,0.15 -0.16,0.19"
   id="path888"
   inkscape:connector-curvature="0"
   style="clip-rule:evenodd;fill:#ffffff;fill-rule:evenodd" />
<path
   class="st0"
   d="m 50.94,17.13 0.39,0.3 0.55,0.45 c 1.24,-1.24 2.03,-1.93 2.37,-2.18 0.4,-0.19 0.7,-0.34 0.99,-0.34 0.25,0 0.4,0.15 0.4,0.44 0,0.24 -0.05,0.55 -0.2,0.89 -0.55,1.63 -1.34,4.4 -2.33,8.2 -0.55,2.12 -0.84,3.7 -0.84,4.74 0,0.54 0.15,0.99 0.44,1.28 0.3,0.3 0.7,0.45 1.19,0.45 0.35,0 0.7,-0.05 1.04,-0.2 0.69,-0.25 1.49,-0.69 2.27,-1.29 0.35,-0.25 1.39,-1.14 3.07,-2.67 0,-0.05 0.06,-0.05 0.06,-0.1 L 60.28,27 59.49,26.31 c -0.15,0.16 -0.39,0.35 -0.7,0.65 -0.6,0.59 -1.28,1.13 -2.08,1.68 -0.35,0.19 -0.54,0.29 -0.69,0.29 -0.1,0 -0.26,-0.05 -0.36,-0.2 -0.09,-0.14 -0.15,-0.29 -0.15,-0.49 0,-1.03 0.8,-4.05 2.28,-9.09 0.94,-3.06 1.38,-4.79 1.38,-5.19 0,-0.34 -0.15,-0.64 -0.39,-0.84 -0.2,-0.2 -0.54,-0.3 -0.99,-0.3 -0.84,0 -1.83,0.35 -3.02,0.99 -1.04,0.59 -2.23,1.58 -3.47,2.91 -0.11,0.17 -0.26,0.32 -0.36,0.41"
   id="path890"
   inkscape:connector-curvature="0"
   style="clip-rule:evenodd;fill:#ffffff;fill-rule:evenodd" />
<path
   class="st0"
   d="M 59.99,8.15 64.2,4.54 h -4.01 l -0.2,0.25 -4.26,5.88 h 1.29 z"
   id="path892"
   inkscape:connector-curvature="0"
   style="clip-rule:evenodd;fill:#ffffff;fill-rule:evenodd" />
<path
   class="st0"
   d="m 113.82,26.23 c -0.79,0.79 -1.63,1.43 -2.53,1.97 -0.49,0.29 -0.84,0.45 -1.09,0.45 -0.34,0 -0.54,-0.24 -0.54,-0.69 0,-0.45 0.15,-1.38 0.5,-2.92 0.54,-2.77 1.13,-5.24 1.78,-7.36 l 1.59,-5.38 -1.39,0.29 -0.5,0.84 c -0.49,-0.05 -0.94,-0.1 -1.38,-0.1 -1.78,0 -3.27,0.3 -4.41,0.79 -0.3,0.15 -0.6,0.34 -0.89,0.49 -1.19,0.7 -2.33,1.64 -3.37,2.82 -1.34,1.53 -2.43,3.21 -3.22,5.04 -0.3,0.64 -0.55,1.29 -0.74,1.93 -0.3,1.09 -0.5,2.12 -0.5,3.06 0,0.94 0.2,1.73 0.5,2.42 0.15,0.2 0.25,0.44 0.4,0.64 0.44,0.59 1.09,0.84 1.93,0.84 0.84,0 1.78,-0.3 2.82,-0.94 0.79,-0.49 1.48,-0.99 2.18,-1.58 0.79,-0.64 1.53,-1.38 2.18,-2.17 l -0.84,2.87 c -0.1,0.35 -0.15,0.64 -0.15,0.89 0,0.3 0.05,0.55 0.24,0.75 0.2,0.15 0.45,0.25 0.84,0.25 0.5,0 1.04,-0.1 1.58,-0.3 0.8,-0.29 1.69,-0.79 2.58,-1.38 0.45,-0.3 1.49,-1.18 3.12,-2.67 z m -6.09,-3.76 c -0.5,1.98 -1.34,3.45 -2.43,4.54 -0.15,0.1 -0.25,0.2 -0.34,0.3 -0.99,0.84 -1.93,1.28 -2.82,1.28 -0.55,0 -0.94,-0.25 -1.29,-0.64 -0.3,-0.45 -0.5,-1.14 -0.5,-2.08 0,-1.83 0.45,-3.66 1.24,-5.43 0.79,-1.83 1.68,-3.11 2.62,-3.81 0.25,-0.15 0.5,-0.29 0.75,-0.44 0.74,-0.4 1.63,-0.59 2.62,-0.59 0.5,0 1.14,0.09 1.93,0.24 z"
   id="path894"
   inkscape:connector-curvature="0"
   style="clip-rule:evenodd;fill:#ffffff;fill-rule:evenodd" />
<path
   class="st0"
   d="m 49.15,26.18 c -2.28,1.92 -4.26,2.91 -5.95,2.91 -0.69,0 -1.24,-0.29 -1.58,-0.84 -0.54,-0.74 -0.79,-1.77 -0.79,-3.11 0,-1.83 0.29,-3.66 0.94,-5.49 0.59,-1.78 1.24,-3.01 1.94,-3.66 0.69,-0.59 1.39,-0.94 2.07,-0.94 0.55,0 1.24,0.25 2.03,0.74 0.8,0.45 1.44,0.69 1.88,0.69 0.55,0 0.95,-0.15 1.19,-0.45 0.05,0 0.05,0 0.1,-0.05 0.25,-0.25 0.35,-0.59 0.35,-0.99 0,-0.4 -0.1,-0.74 -0.35,-1.04 -0.15,-0.14 -0.3,-0.29 -0.45,-0.44 -0.54,-0.4 -1.34,-0.59 -2.37,-0.59 -1.69,0 -3.17,0.49 -4.51,1.48 -1.73,1.23 -3.17,3.06 -4.36,5.43 -1.18,2.37 -1.78,4.64 -1.78,6.87 0,1.38 0.29,2.47 0.84,3.36 0.54,0.84 1.43,1.29 2.68,1.29 2.32,0 5.2,-1.29 8.57,-3.95 z"
   id="path896"
   inkscape:connector-curvature="0"
   style="clip-rule:evenodd;fill:#ffffff;fill-rule:evenodd" />
<path
   class="st0"
   d="m 89.83,16 c 0.65,-0.59 1.33,-0.94 2.03,-0.94 0.54,0 1.24,0.25 2.04,0.74 0.79,0.45 1.44,0.69 1.93,0.69 0.44,0 0.84,-0.15 1.09,-0.4 0.05,0 0.05,0 0.09,-0.05 0.3,-0.24 0.4,-0.64 0.4,-1.03 0,-0.45 -0.15,-0.84 -0.5,-1.19 -0.05,-0.1 -0.15,-0.2 -0.3,-0.3 -0.54,-0.4 -1.33,-0.59 -2.37,-0.59 -1.68,0 -3.17,0.49 -4.51,1.48 -1.68,1.23 -3.12,3.06 -4.31,5.43 -1.19,2.37 -1.79,4.64 -1.79,6.87 0,1.38 0.26,2.47 0.8,3.36 0.59,0.84 1.48,1.29 2.72,1.29 2.33,0 5.15,-1.29 8.52,-3.95 l -0.44,-1.23 c -2.28,1.92 -4.26,2.91 -5.9,2.91 -0.74,0 -1.24,-0.29 -1.63,-0.84 -0.54,-0.74 -0.79,-1.77 -0.79,-3.11 0,-1.83 0.3,-3.66 0.94,-5.49 0.64,-1.77 1.28,-3.01 1.98,-3.65"
   id="path898"
   inkscape:connector-curvature="0"
   style="clip-rule:evenodd;fill:#ffffff;fill-rule:evenodd" />
<path
   class="st0"
   d="m 80.71,27.11 c -1.34,1.23 -2.18,1.83 -2.57,1.83 -0.1,0 -0.25,-0.05 -0.29,-0.2 -0.1,-0.14 -0.2,-0.29 -0.2,-0.49 0,-1.03 0.8,-4.05 2.28,-9.09 0.35,-1.09 0.6,-1.98 0.79,-2.72 0.39,-1.39 0.6,-2.23 0.6,-2.47 0,-0.34 -0.1,-0.64 -0.35,-0.84 -0.1,-0.05 -0.15,-0.1 -0.25,-0.15 -0.19,-0.1 -0.5,-0.15 -0.79,-0.15 -0.84,0 -1.84,0.35 -3.02,0.99 -1.14,0.69 -2.43,1.78 -3.87,3.31 l 0.94,0.75 c 1.24,-1.24 2.03,-1.93 2.43,-2.18 0.35,-0.19 0.64,-0.34 0.94,-0.34 0.25,0 0.4,0.15 0.4,0.44 0,0.24 -0.05,0.55 -0.15,0.89 -2.13,6.87 -3.23,11.16 -3.23,12.94 0,0.54 0.16,0.99 0.45,1.28 0.29,0.3 0.69,0.45 1.19,0.45 0.6,0 1.29,-0.25 2.18,-0.74 0.6,-0.35 1.43,-0.99 2.52,-1.93 0.55,-0.45 1.09,-0.99 1.73,-1.58 l -0.85,-0.8 c -0.28,0.31 -0.57,0.56 -0.88,0.8"
   id="path900"
   inkscape:connector-curvature="0"
   style="clip-rule:evenodd;fill:#ffffff;fill-rule:evenodd" />
<path
   class="st0"
   d="m 74.67,13.48 h -5.6 l 1.09,-4.54 c 0.45,-1.93 1.04,-3.51 1.79,-4.64 0.74,-1.19 1.58,-1.73 2.53,-1.73 0.4,0 0.94,0.05 1.59,0.19 1.38,0.3 2.32,0.45 2.82,0.45 0.44,0 0.84,-0.15 1.14,-0.4 l 0.04,-0.05 c 0.3,-0.24 0.45,-0.59 0.45,-1.03 0,-0.41 -0.2,-0.74 -0.49,-1.04 C 79.97,0.64 79.92,0.59 79.82,0.54 79.38,0.19 78.73,0 77.89,0 c -1.54,0 -3.18,0.49 -4.91,1.48 -1.73,1.03 -3.12,2.37 -4.21,4.1 -1.09,1.73 -2.03,4.34 -2.88,7.9 h -5.1 l -0.15,0.74 -0.19,0.74 h 0.19 4.86 l -4.31,17.29 c -0.2,0.79 -0.35,1.49 -0.55,2.07 -0.44,1.39 -0.89,2.32 -1.34,2.77 -0.64,0.64 -1.68,0.99 -3.07,0.99 -0.89,0 -1.88,-0.05 -2.87,-0.19 -0.55,-0.05 -0.99,-0.1 -1.29,-0.1 h -0.4 c -0.45,0.05 -0.75,0.19 -0.99,0.39 -0.3,0.25 -0.49,0.59 -0.49,1.03 0,0.49 0.24,0.94 0.69,1.29 0.25,0.14 0.49,0.29 0.8,0.35 0.34,0.15 0.74,0.2 1.24,0.2 2.67,0 5.15,-1.09 7.43,-3.21 0.1,-0.05 0.2,-0.15 0.29,-0.25 2.14,-2.13 3.67,-5.14 4.66,-9.1 l 3.37,-13.53 h 5.7 z"
   id="path902"
   inkscape:connector-curvature="0"
   style="clip-rule:evenodd;fill:#ffffff;fill-rule:evenodd" />
<path
   class="st0"
   d="m 0.19,31.51 v -1.14 l 1.34,-0.1 c 0.9,0 1.44,-0.1 1.69,-0.29 0.25,-0.15 0.44,-0.59 0.6,-1.19 C 4.26,27.25 5.06,23.35 6.19,17.13 7.33,10.86 7.88,7.45 7.88,6.86 7.88,6.37 7.73,6.02 7.33,5.82 6.99,5.68 5.9,5.52 4.07,5.42 V 4.38 c 2.87,0.1 4.75,0.2 5.69,0.2 0.89,0 2.18,-0.05 3.87,-0.1 1.58,-0.1 2.72,-0.1 3.46,-0.1 1.98,0 3.47,0.2 4.51,0.64 1.04,0.45 1.88,1.14 2.48,2.08 0.59,0.89 0.89,1.97 0.89,3.26 0,1.68 -0.49,3.26 -1.49,4.83 -0.94,1.58 -2.18,2.82 -3.72,3.66 -1.48,0.83 -3.12,1.24 -4.9,1.24 -1.29,0 -2.57,-0.3 -3.81,-0.89 v -1.18 c 1.24,0.44 2.27,0.64 3.17,0.64 2.08,0 3.77,-0.74 5.05,-2.17 1.29,-1.48 1.93,-3.31 1.93,-5.53 0,-1.63 -0.55,-2.91 -1.59,-3.8 -1.04,-0.84 -2.53,-1.29 -4.55,-1.29 -0.8,0 -1.93,0.1 -3.37,0.3 -1.19,5.63 -2.33,11.26 -3.32,16.84 -0.6,3.11 -0.84,5.09 -0.84,5.93 0,0.49 0.15,0.84 0.49,0.99 0.3,0.15 1.58,0.3 3.82,0.44 v 1.14 C 8.76,31.42 6.49,31.37 5.06,31.37 c -1.55,0 -3.18,0.05 -4.87,0.14"
   id="path904"
   inkscape:connector-curvature="0"
   style="clip-rule:evenodd;fill:#ffffff;fill-rule:evenodd" />
</svg>